%YAML 1.1
%TAG !u! tag:unity3d.com,2011:
--- !u!114 &11400000
MonoBehaviour:
  m_ObjectHideFlags: 0
  m_CorrespondingSourceObject: {fileID: 0}
  m_PrefabInstance: {fileID: 0}
  m_PrefabAsset: {fileID: 0}
  m_GameObject: {fileID: 0}
  m_Enabled: 1
  m_EditorHideFlags: 0
  m_Script: {fileID: 11500000, guid: fc4ab22cbe4e68f408b5946f255a0d78, type: 3}
  m_Name: SoundManagerSettings
  m_EditorClassIdentifier: 
  TargetAudioMixer: {fileID: 24100000, guid: 3d8ed1f476cee93498c4f62920313ff7, type: 2}
  MasterAudioMixerGroup: {fileID: 24300002, guid: 3d8ed1f476cee93498c4f62920313ff7, type: 2}
  MusicAudioMixerGroup: {fileID: -2151924433834912628, guid: 3d8ed1f476cee93498c4f62920313ff7, type: 2}
  SfxAudioMixerGroup: {fileID: 685131151748786355, guid: 3d8ed1f476cee93498c4f62920313ff7, type: 2}
  UIAudioMixerGroup: {fileID: 3679948773579930110, guid: 3d8ed1f476cee93498c4f62920313ff7, type: 2}
  Settings:
    MasterVolumeParameter: MasterVolume
    MusicVolumeParameter: MusicVolume
    SfxVolumeParameter: SfxVolume
    UIVolumeParameter: UIVolume
    MasterVolume: 1
    MasterOn: 1
    MutedMasterVolume: 0
    MusicVolume: 1
    MusicOn: 1
    MutedMusicVolume: 0
    SfxVolume: 1
    SfxOn: 1
    MutedSfxVolume: 0
    UIVolume: 1
    UIOn: 1
    MutedUIVolume: 0
